{
  "name": "Juda Tomas",
  "email": "woshiwzyfly@gmail.com",
  "locale": "zh_CN",
  "picture": {
    "data": {
      "is_silhouette": false,
      "url": "https:\/\/scontent.xx.fbcdn.net\/v\/t1.0-1\/c21.21.263.263\/s50x50\/484136_331412983615017_1925508367_n.jpg?oh=e2637e043f2dabebd9e3b09007ebba95&oe=57CC091E"
    }
  },
  "location": {
    "id": "106487912721749",
    "name": "Chengdu, China"
  },
  "id": "964340753655567"
}