{
  "errors": "",
  "data": {
    "total": 3,
    "per_page": 10,
    "current_page": 1,
    "last_page": 1,
    "next_page_url": null,
    "prev_page_url": null,
    "from": 1,
    "to": 3,
    "data": [
      {
        "id": 13,
        "user_id": 266,
        "amount": 16,
        "name": "Test65p",
        "mtime": "1459506379",
        "status": "COMPLETED",
        "amount_in": 106.5,
        "amount_out": 66.55,
        "user": {
          "id": 266,
          "facebook_id": 0,
          "level": 1,
          "profile": {
            "user_id": 266,
            "name": "Amy",
            "email": "test65p@domain.com",
            "paypal_email": "test5p@domain.com",
            "avatar": "http://106.185.55.185:8767/avatar/266.png",
            "phone": "84546484",
            "bussness": "",
            "postcode": "535 S Grand Ave,Los Anggles, CA",
            "lat": "34.04973",
            "lng": "-118.2545",
            "email_verify": 1,
            "country": "USA",
            "currency": "USD",
            "level": 1,
            "review": 4
          }
        },
        "details": [
          {
            "id": 22,
            "history_id": 13,
            "user_id": 268,
            "name": "Test70p",
            "email": "test6p@domain.com",
            "amount": 10.8,
            "user": {
              "id": 268,
              "facebook_id": 0,
              "level": 1,
              "profile": {
                "user_id": 268,
                "name": "Test70p",
                "email": "test70p2@domain.com",
                "paypal_email": "test6p@domain.com",
                "avatar": "http://106.185.55.185:8767/avatar/268.png",
                "phone": "04123456",
                "bussness": "",
                "postcode": "42 Meeks St, Kingsford, nsw",
                "lat": "-33.9228",
                "lng": "151.2323",
                "email_verify": 0,
                "country": "Australia",
                "currency": "AUD",
                "level": 1,
                "review": 4
              }
            }
          },
          {
            "id": 23,
            "history_id": 13,
            "user_id": 269,
            "name": "Test70b",
            "email": "test6b@domain.com",
            "amount": 3.6,
            "user": {
              "id": 269,
              "facebook_id": 0,
              "level": 2,
              "profile": {
                "user_id": 269,
                "name": "Chris",
                "email": "test70b@domain.com",
                "paypal_email": "testus3@tipppr.com",
                "avatar": "http://106.185.55.185:8767/avatar/269.png",
                "phone": "0400009900",
                "bussness": "Easy Cafe",
                "postcode": "535 S Grand Avenue, Los Anglers, Ca",
                "lat": "34.04973",
                "lng": "-118.2545",
                "email_verify": 1,
                "country": "USA",
                "currency": "USD",
                "level": 2,
                "review": 3
              }
            }
          }
        ]
      },
      {
        "id": 12,
        "user_id": 266,
        "amount": 20,
        "name": "Test65p",
        "mtime": "1459506303",
        "status": "COMPLETED",
        "amount_in": 106.5,
        "amount_out": 66.55,
        "user": {
          "id": 266,
          "facebook_id": 0,
          "level": 1,
          "profile": {
            "user_id": 266,
            "name": "Amy",
            "email": "test65p@domain.com",
            "paypal_email": "test5p@domain.com",
            "avatar": "http://106.185.55.185:8767/avatar/266.png",
            "phone": "84546484",
            "bussness": "",
            "postcode": "535 S Grand Ave,Los Anggles, CA",
            "lat": "34.04973",
            "lng": "-118.2545",
            "email_verify": 1,
            "country": "USA",
            "currency": "USD",
            "level": 1,
            "review": 4
          }
        },
        "details": [
          {
            "id": 21,
            "history_id": 12,
            "user_id": 292,
            "name": "Sara Test55p",
            "email": "test4p@domain.com",
            "amount": 18,
            "user": {
              "id": 292,
              "facebook_id": 0,
              "level": 1,
              "profile": {
                "user_id": 292,
                "name": "Sara Test55p",
                "email": "test55p@domain.com",
                "paypal_email": "testca2@tipppr.com",
                "avatar": "http://106.185.55.185:8767/avatar/292.png",
                "phone": "0123456",
                "bussness": "",
                "postcode": "1600 Wellington Ave Winnipeg MB",
                "lat": "49.87577",
                "lng": "-97.20578",
                "email_verify": 1,
                "country": "Canada",
                "currency": "CAD",
                "level": 1,
                "review": 4
              }
            }
          }
        ]
      },
      {
        "id": 10,
        "user_id": 266,
        "amount": 10,
        "name": "Test65p",
        "mtime": "1459479800",
        "status": "",
        "amount_in": 106.5,
        "amount_out": 66.55,
        "user": {
          "id": 266,
          "facebook_id": 0,
          "level": 1,
          "profile": {
            "user_id": 266,
            "name": "Amy",
            "email": "test65p@domain.com",
            "paypal_email": "test5p@domain.com",
            "avatar": "http://106.185.55.185:8767/avatar/266.png",
            "phone": "84546484",
            "bussness": "",
            "postcode": "535 S Grand Ave,Los Anggles, CA",
            "lat": "34.04973",
            "lng": "-118.2545",
            "email_verify": 1,
            "country": "USA",
            "currency": "USD",
            "level": 1,
            "review": 4
          }
        },
        "details": [
          {
            "id": 18,
            "history_id": 10,
            "user_id": 263,
            "name": "Test60p",
            "email": "test4p@domain.com",
            "amount": 6.75,
            "user": {
              "id": 263,
              "facebook_id": 0,
              "level": 1,
              "profile": {
                "user_id": 263,
                "name": "Test60p",
                "email": "test60p@domain.com",
                "paypal_email": "test4p@domain.com",
                "avatar": "http://106.185.55.185:8767/avatar/263.png",
                "phone": "0406888888",
                "bussness": "",
                "postcode": "Ryde,New South Wales,Australia",
                "lat": "-33.813415527344",
                "lng": "151.10578918457",
                "email_verify": 1,
                "country": "",
                "currency": "",
                "level": 1,
                "review": 4
              }
            }
          },
          {
            "id": 19,
            "history_id": 10,
            "user_id": 264,
            "name": "Hotel Test60b",
            "email": "test4b@domain.com",
            "amount": 2.25,
            "user": {
              "id": 264,
              "facebook_id": 0,
              "level": 2,
              "profile": {
                "user_id": 264,
                "name": "Peter",
                "email": "test60b@domain.com",
                "paypal_email": "test2b@domain.com",
                "avatar": "http://106.185.55.185:8767/avatar/264.png",
                "phone": "03838393",
                "bussness": "Hotel Test60b",
                "postcode": "52 Gardeners Rd, Kingsford, Nsw",
                "lat": "-33.92501",
                "lng": "151.2258",
                "email_verify": 1,
                "country": "Australia",
                "currency": "AUD",
                "level": 2,
                "review": 4
              }
            }
          }
        ]
      }
    ]
  }
}