{
  "errors": "",
  "data": {
    "total": 5,
    "per_page": 10,
    "current_page": 1,
    "last_page": 1,
    "next_page_url": null,
    "prev_page_url": null,
    "from": 1,
    "to": 5,
    "data": [
      {
        "user_id": 94,
        "name": "b8",
        "email": "b8@domain.com",
        "avatar": "",
        "phone": "666655555",
        "bussness": "sand",
        "postcode": "Sydney St SE,Georgia,United St",
        "lat": "33.741183",
        "lng": "-84.3748618",
        "distance": 7720.7666256959,
        "level": 2,
        "review": 0
      },
      {
        "user_id": 3,
        "name": "sandb2",
        "email": "sandb2@domain.com",
        "avatar": "http://106.185.55.185:8767/avatar/3.png",
        "phone": "6548655",
        "bussness": "sandb2.inc",
        "postcode": "Chengdu,Sichuan,China",
        "lat": "30.572816",
        "lng": "104.066801",
        "distance": 9518.5052727487,
        "level": 2,
        "review": 0
      },
      {
        "user_id": 4,
        "name": "b3",
        "email": "b3@domain.com",
        "avatar": "http://106.185.55.185:8767/avatar/4.png",
        "phone": "66666666",
        "bussness": "sandb3 local",
        "postcode": "Chengdu,Sichuan,China",
        "lat": "30.572816",
        "lng": "104.066801",
        "distance": 9518.5052727487,
        "level": 2,
        "review": 0
      },
      {
        "user_id": 5,
        "name": "b4",
        "email": "b4@domain.com",
        "avatar": "http://106.185.55.185:8767/avatar/5.png",
        "phone": "6598524",
        "bussness": "sandb4",
        "postcode": "Chengdu,Sichuan,China",
        "lat": "30.572816",
        "lng": "104.066801",
        "distance": 9518.5052727487,
        "level": 2,
        "review": 0
      },
      {
        "user_id": 2,
        "name": "sandb1",
        "email": "sandb1@domain.com",
        "avatar": "http://106.185.55.185:8767/avatar/2.png",
        "phone": "77777777",
        "bussness": "sandb1.inc",
        "postcode": "北京市,北京市,中国",
        "lat": "39.904209136963",
        "lng": "116.40739440918",
        "distance": 9812.7191218398,
        "level": 2,
        "review": 0
      }
    ]
  }
}