{
  "errors": "",
  "data": {
    "id": 1,
    "user_id": 6,
    "name": "",
    "email": "",
    "avatar": "http:\/\/192.168.1.121:8000\/avatar\/6.png",
    "phone": "",
    "bussness": "",
    "postcode": ""
  }
}